<?xml version="1.0" encoding="utf-8"?>
<!-- Generator: Adobe Illustrator 19.2.1, SVG Export Plug-In . SVG Version: 6.00 Build 0)  -->
<svg version="1.1" id="Laag_1" xmlns="http://www.w3.org/2000/svg" xmlns:xlink="http://www.w3.org/1999/xlink" x="0px" y="0px"
	 viewBox="0 0 48.9 50" style="enable-background:new 0 0 48.9 50;" xml:space="preserve">
<style type="text/css">
	.st0{display:none;}
	.st1{display:inline;}
	.st2{display:inline;fill:#FFFFFF;}
	.st3{display:inline;fill:#4CBE9D;}
	.st4{fill:#FFFFFF;}
	.st5{fill:#4CBE9D;}
</style>
<g id="Layer_1" class="st0">
	<path class="st1" d="M15.8,22.1c-2.8,0.3-4.6,2.7-4.2,6.7c0.6,5.5,3.5,10.8,4.1,18.7h0.2c0.6-8,3.5-13.2,4.1-18.7
		C20.4,24.8,18.6,22.4,15.8,22.1L15.8,22.1z"/>
	<path class="st1" d="M28.5,9.6C28.5,9.7,28.5,9.7,28.5,9.6C28.5,9.7,28.4,9.7,28.5,9.6c-0.1,0-0.1,0-0.1,0H28.5L28.5,9.6L28.5,9.6z
		"/>
	<path class="st1" d="M28.4,10.2c0,0,0.1,0,0.2-0.1C28.5,10.2,28.4,10.3,28.4,10.2L28.4,10.2L28.4,10.2z"/>
	<path class="st1" d="M28.5,10.1c0.1-0.1,0.1-0.2,0-0.3V9.7C28.6,9.8,28.7,10,28.5,10.1L28.5,10.1z"/>
	<path class="st1" d="M28.6,10.2c0,0,0.1-0.1,0.1-0.2c0-0.2-0.1-0.3-0.2-0.3c0,0,0-0.1-0.1-0.1c0.1,0,0.2,0.1,0.2,0.1
		C28.8,9.7,28.8,10,28.6,10.2C28.6,10.1,28.6,10.1,28.6,10.2L28.6,10.2z"/>
	<path class="st1" d="M28.4,9.7L28.4,9.7C28.4,9.7,28.5,9.7,28.4,9.7C28.5,9.7,28.5,9.8,28.4,9.7C28.5,9.8,28.4,9.8,28.4,9.7
		L28.4,9.7z"/>
	<path class="st1" d="M28.3,10.1C28.4,10.1,28.4,10.1,28.3,10.1c0.1,0,0.1,0,0.1,0S28.4,10.1,28.3,10.1L28.3,10.1z"/>
	<path class="st1" d="M28.2,9.6l0.1-0.1l0,0C28.3,9.6,28.3,9.6,28.2,9.6L28.2,9.6z"/>
	<path class="st1" d="M28.3,10.1L28.2,10l0,0h0.1l0,0c0.1,0,0.1,0,0.1-0.1c0,0,0,0,0-0.1c0.1,0.1,0,0.2,0,0.3
		C28.4,10.1,28.4,10.1,28.3,10.1C28.4,10.1,28.4,10.1,28.3,10.1L28.3,10.1z"/>
	<path class="st1" d="M28.4,9.4h-0.1C28.3,9.4,28.3,9.4,28.4,9.4L28.4,9.4z"/>
	<path class="st1" d="M28.5,9.8h-0.1C28.4,9.8,28.4,9.8,28.5,9.8C28.4,9.8,28.5,9.8,28.5,9.8L28.5,9.8L28.5,9.8z"/>
	<path class="st1" d="M28.4,9.7L28.4,9.7C28.3,9.7,28.3,9.8,28.4,9.7C28.3,9.7,28.3,9.7,28.4,9.7L28.4,9.7
		C28.3,9.7,28.3,9.7,28.4,9.7C28.3,9.7,28.3,9.7,28.4,9.7C28.3,9.7,28.3,9.7,28.4,9.7C28.3,9.7,28.3,9.7,28.4,9.7L28.4,9.7z"/>
	<path class="st1" d="M28.3,9.8L28.3,9.8L28.3,9.8L28.3,9.8z"/>
	<path class="st1" d="M28.3,9.7L28.3,9.7L28.3,9.7L28.3,9.7L28.3,9.7L28.3,9.7z"/>
	<path class="st1" d="M28.3,9.7L28.3,9.7L28.3,9.7L28.3,9.7L28.3,9.7L28.3,9.7z"/>
	<path class="st1" d="M28.3,9.9L28.3,9.9C28.3,9.9,28.3,9.8,28.3,9.9C28.3,9.8,28.3,9.8,28.3,9.9C28.4,9.8,28.4,9.8,28.3,9.9
		c0.1-0.1,0.2-0.1,0.2-0.1s0,0.1-0.1,0.1l0,0C28.3,9.9,28.3,9.9,28.3,9.9L28.3,9.9z"/>
	<path class="st1" d="M28.3,9.7L28.3,9.7L28.3,9.7z"/>
	<path class="st1" d="M28.3,9.8C28.3,9.7,28.3,9.7,28.3,9.8C28.3,9.7,28.3,9.7,28.3,9.8L28.3,9.8L28.3,9.8L28.3,9.8z"/>
	<path class="st1" d="M28.3,9.7L28.3,9.7L28.3,9.7L28.3,9.7L28.3,9.7z"/>
	<path class="st1" d="M28.3,9.7L28.3,9.7L28.3,9.7z"/>
	<path class="st1" d="M28.3,9.8L28.3,9.8C28.3,9.8,28.3,9.7,28.3,9.8C28.4,9.8,28.3,9.8,28.3,9.8L28.3,9.8z"/>
	<path class="st1" d="M28.3,9.7L28.3,9.7C28.3,9.7,28.4,9.7,28.3,9.7C28.4,9.7,28.4,9.7,28.3,9.7C28.4,9.7,28.4,9.7,28.3,9.7
		C28.4,9.7,28.4,9.7,28.3,9.7L28.3,9.7L28.3,9.7L28.3,9.7L28.3,9.7L28.3,9.7z"/>
	<path class="st1" d="M28.3,9.7L28.3,9.7L28.3,9.7L28.3,9.7L28.3,9.7L28.3,9.7L28.3,9.7L28.3,9.7L28.3,9.7z"/>
	<path class="st1" d="M28.3,9.8L28.3,9.8L28.3,9.8z"/>
	<path class="st1" d="M28.3,9.8L28.3,9.8L28.3,9.8z"/>
	<path class="st1" d="M28.3,9.7L28.3,9.7L28.3,9.7L28.3,9.7L28.3,9.7L28.3,9.7L28.3,9.7L28.3,9.7z"/>
	<polygon class="st1" points="28.3,9.7 28.3,9.7 28.3,9.7 	"/>
	<path class="st1" d="M28.3,9.7L28.3,9.7L28.3,9.7L28.3,9.7L28.3,9.7z"/>
	<polygon class="st1" points="28.3,9.8 28.3,9.8 28.3,9.8 28.3,9.8 	"/>
	<path class="st1" d="M28.3,9.8L28.3,9.8L28.3,9.8z"/>
	<polygon class="st1" points="28.3,9.7 28.3,9.7 28.3,9.7 	"/>
	<path class="st1" d="M28.3,9.8L28.3,9.8L28.3,9.8L28.3,9.8L28.3,9.8L28.3,9.8z"/>
	<path class="st1" d="M28.3,9.8L28.3,9.8L28.3,9.8L28.3,9.8L28.3,9.8C28.3,9.7,28.3,9.7,28.3,9.8L28.3,9.8
		C28.3,9.7,28.3,9.8,28.3,9.8L28.3,9.8L28.3,9.8z"/>
	<path class="st1" d="M28.3,9.8L28.3,9.8L28.3,9.8L28.3,9.8L28.3,9.8L28.3,9.8z"/>
	<path class="st1" d="M28.3,9.8L28.3,9.8L28.3,9.8z"/>
	<path class="st1" d="M28.3,9.9C28.3,9.9,28.2,9.9,28.3,9.9L28.3,9.9L28.3,9.9L28.3,9.9z"/>
	<path class="st1" d="M28.3,9.8L28.3,9.8L28.3,9.8L28.3,9.8L28.3,9.8L28.3,9.8L28.3,9.8L28.3,9.8L28.3,9.8L28.3,9.8z"/>
	<path class="st1" d="M28.3,9.9h0.1C28.3,9.9,28.3,10,28.3,9.9L28.3,9.9L28.3,9.9z"/>
	<polygon class="st1" points="28.3,9.8 28.3,9.8 28.3,9.8 	"/>
	<path class="st1" d="M28.3,9.8L28.3,9.8L28.3,9.8L28.3,9.8C28.3,9.9,28.3,9.8,28.3,9.8L28.3,9.8z"/>
	<path class="st1" d="M28.3,9.9C28.3,9.9,28.3,9.8,28.3,9.9C28.3,9.8,28.3,9.8,28.3,9.9C28.3,9.8,28.3,9.8,28.3,9.9
		C28.3,9.8,28.3,9.8,28.3,9.9C28.3,9.8,28.3,9.8,28.3,9.9C28.3,9.8,28.3,9.8,28.3,9.9c0.1,0,0.1-0.1,0.1-0.1s0,0,0.1,0
		C28.4,9.8,28.4,9.8,28.3,9.9L28.3,9.9C28.3,9.8,28.3,9.8,28.3,9.9L28.3,9.9L28.3,9.9L28.3,9.9z"/>
	<path class="st1" d="M28.2,9.8C28.2,9.8,28.3,9.8,28.2,9.8C28.3,9.8,28.2,9.8,28.2,9.8L28.2,9.8z"/>
	<path class="st1" d="M28.3,9.8C28.3,9.8,28.2,9.8,28.3,9.8L28.3,9.8L28.3,9.8L28.3,9.8L28.3,9.8L28.3,9.8L28.3,9.8L28.3,9.8z"/>
	<polygon class="st1" points="28.2,9.8 28.2,9.8 28.2,9.8 	"/>
	<path class="st1" d="M28.2,9.8L28.2,9.8L28.2,9.8L28.2,9.8z"/>
	<path class="st1" d="M28.3,9.9C28.2,9.9,28.2,9.9,28.3,9.9C28.2,9.8,28.2,9.8,28.3,9.9C28.2,9.8,28.2,9.8,28.3,9.9
		C28.3,9.8,28.3,9.8,28.3,9.9C28.3,9.8,28.3,9.8,28.3,9.9C28.3,9.8,28.3,9.8,28.3,9.9c0-0.1,0-0.1,0-0.1l0,0l0,0
		C28.3,9.8,28.3,9.8,28.3,9.9L28.3,9.9C28.3,9.8,28.2,9.8,28.3,9.9L28.3,9.9C28.2,9.8,28.2,9.8,28.3,9.9C28.2,9.8,28.2,9.8,28.3,9.9
		C28.2,9.8,28.3,9.8,28.3,9.9C28.3,9.8,28.3,9.9,28.3,9.9L28.3,9.9z M28.2,9.8L28.2,9.8L28.2,9.8L28.2,9.8z"/>
	<path class="st1" d="M28.3,9.8C28.2,9.8,28.2,9.8,28.3,9.8c-0.1,0-0.1,0-0.1,0.1C28.2,9.8,28.2,9.7,28.3,9.8
		C28.3,9.7,28.3,9.7,28.3,9.8C28.3,9.7,28.3,9.7,28.3,9.8L28.3,9.8L28.3,9.8L28.3,9.8z"/>
	<path class="st1" d="M28.2,9.8C28.2,9.9,28.2,9.9,28.2,9.8C28.2,9.9,28.3,9.9,28.2,9.8c0.1,0.1,0.1,0.1,0.1,0.1
		C28.2,9.9,28.2,9.9,28.2,9.8C28.1,9.8,28.2,9.8,28.2,9.8L28.2,9.8z"/>
	<path class="st1" d="M28.1,9.8c0-0.1,0.1-0.1,0.1-0.2l0,0c0.1,0,0.1,0,0.2,0c0,0,0,0,0,0.1h-0.1C28.2,9.7,28.2,9.7,28.1,9.8
		L28.1,9.8z"/>
	<path class="st1" d="M28.1,9.8l0.1-0.1l0,0l0,0l0,0l0,0l0,0l0,0C28.2,9.7,28.2,9.8,28.1,9.8C28.2,9.8,28.1,9.8,28.1,9.8L28.1,9.8
		L28.1,9.8z"/>
	<path class="st1" d="M28.1,9.8L28.1,9.8L28.1,9.8z"/>
	<path class="st1" d="M28.1,9.8L28.1,9.8L28.1,9.8L28.1,9.8c0.1-0.1,0.1-0.2,0.2-0.1l0,0C28.2,9.7,28.2,9.8,28.1,9.8L28.1,9.8
		L28.1,9.8z"/>
	<path class="st1" d="M28.1,9.8L28.1,9.8L28.1,9.8L28.1,9.8L28.1,9.8z"/>
	<path class="st1" d="M28.3,10.1c-0.1,0-0.2-0.1-0.2-0.2l0,0l0,0l0,0c0,0.1,0.1,0.1,0.1,0.1l0,0C28.3,10,28.3,10.1,28.3,10.1
		L28.3,10.1z"/>
	<path class="st1" d="M28.1,9.8L28.1,9.8L28.1,9.8L28.1,9.8L28.1,9.8z"/>
	<path class="st1" d="M28.1,9.9C28.1,9.8,28.1,9.8,28.1,9.9C28.1,9.8,28.1,9.8,28.1,9.9C28.1,9.8,28.1,9.8,28.1,9.9L28.1,9.9z"/>
	<path class="st1" d="M28.1,9.9c0,0.1,0.1,0.2,0.2,0.2h0.1c0.2-0.1,0.2-0.3,0.1-0.4c0,0,0,0,0-0.1l0,0c0.1,0,0.2,0.1,0.2,0.3
		c0,0.1,0,0.2-0.1,0.2s-0.1,0-0.2,0.1c0,0,0,0-0.1,0S28.1,10,28.1,9.9L28.1,9.9z"/>
	<path class="st1" d="M28,10c0-0.1,0.1-0.1,0.1-0.1l0,0c-0.1,0.2,0.1,0.3,0.2,0.4C28.2,10.3,28.1,10.1,28,10L28,10z"/>
	<path class="st1" d="M28,9.7c0.1-0.2,0.2-0.2,0.4-0.2c0,0,0,0.1,0.1,0.1h-0.1l0,0c-0.1,0-0.1,0-0.1,0.1l0,0
		C28.2,9.6,28.1,9.7,28,9.7L28,9.7z"/>
	<path class="st1" d="M28.4,10.4c-0.2,0-0.3-0.1-0.4-0.3c0,0,0,0,0-0.1c0.1,0.1,0.2,0.3,0.3,0.2c0.1,0,0.2,0,0.2-0.1
		c0,0,0,0,0.1-0.1s0.1-0.4,0-0.4c-0.1-0.1-0.1-0.1-0.2-0.1l-0.1-0.1c0.1,0,0.1,0,0.2,0c0.2,0.1,0.3,0.4,0.2,0.6
		C28.8,10.2,28.6,10.4,28.4,10.4L28.4,10.4z"/>
	<path class="st1" d="M28,9.7C28,9.7,28,9.8,28,9.7L28,9.7c0-0.1,0.1-0.2,0.2-0.3h0.1c0,0,0.1,0,0.1,0.1C28.3,9.5,28.1,9.6,28,9.7
		L28,9.7z"/>
	<path class="st1" d="M28,9.9c0-0.1,0-0.1,0-0.2c0.1-0.1,0.1-0.1,0.2-0.1c0,0-0.1,0.1-0.1,0.2l0,0l0,0l0,0l0,0l0,0l0,0L28,9.9
		C28,10,28,9.9,28,9.9L28,9.9z"/>
	<path class="st1" d="M28,9.9V10c0,0,0,0,0,0.1c0,0,0,0,0-0.1V9.9L28,9.9z"/>
	<path class="st1" d="M28,9.7c0,0,0,0.1,0,0.2C28,9.9,28,9.8,28,9.7L28,9.7C28,9.8,28,9.7,28,9.7L28,9.7z"/>
	<path class="st1" d="M28.1,9.5c0,0,0.1-0.1,0.2-0.1C28.2,9.5,28.2,9.6,28.1,9.5c0,0.1,0,0.1,0,0.2l0,0c0,0.1-0.1,0.1-0.1,0.2
		c-0.4,1.3,1.8,1.1,2.1-0.1C30.2,9,29.9,8.4,29.3,8l0,0c-0.6-0.5-1.5-0.5-2.1-0.1c0.2-0.2,0.5-0.4,0.9-0.4c0.3-0.1,1.9,0.1,2.1,1.6
		c0.1,0.6-0.2,1.3-0.6,1.5c-0.3,0.2-0.6,0.3-0.6,0.3s-0.3,0.1-0.7,0c-0.2,0-0.5-0.1-0.6-0.5C27.7,10.2,27.7,9.7,28.1,9.5L28.1,9.5z"
		/>
	<path class="st1" d="M29.9,8.6c-0.7-1-1.8-1.2-2.6-0.7c0.2-0.2,0.5-0.3,0.8-0.3c0.4,0,0.9,0.1,1.2,0.3l0,0
		C29.5,8.2,29.7,8.4,29.9,8.6L29.9,8.6z"/>
	<path class="st1" d="M27.3,8c-0.1,0.1-0.2,0.2-0.3,0.3C27,8.1,27.1,8,27.3,8c0.6-0.4,1.4-0.4,2,0c-0.3-0.2-0.8-0.4-1.2-0.3
		C27.7,7.7,27.5,7.8,27.3,8L27.3,8z"/>
	<path class="st1" d="M28.1,7.8c-0.7,0.1-0.9,0.4-1.4,0.8l0.1-0.1c0.7-0.9,2.2-1.1,3.1,0.1c-0.2-0.3-0.3-0.5-0.5-0.6
		c0.5,0.4,0.9,1,0.7,1.9c-0.3,1.2-2.5,1.4-2.1,0.1c0-0.1,0.1-0.1,0.1-0.2v0.1V10c0,0,0,0,0,0.1s0,0.2,0,0.3c0.1,0.2,0.2,0.3,0.4,0.3
		c0.3,0.1,0.5,0,0.5,0s1.2-0.2,1-1.5C29.7,8,28.4,7.7,28.1,7.8L28.1,7.8z"/>
	<path class="st1" d="M26.7,8.7c0.2-0.3,0.4-0.5,0.6-0.7c0.8-0.5,1.9-0.4,2.6,0.7c-0.9-1.2-2.3-1.1-3.1-0.1
		C26.8,8.5,26.7,8.6,26.7,8.7C26.7,8.6,26.7,8.7,26.7,8.7L26.7,8.7z"/>
	<path class="st1" d="M26.9,8.2C27.1,8.1,27.2,8,27.3,8c-0.2,0.2-0.4,0.4-0.6,0.7C26.8,8.5,26.9,8.4,26.9,8.2L26.9,8.2z"/>
	<path class="st1" d="M15.3,14.2c0.5,1.7,0.8,3.1,0.8,4.4c0.1,1.3-0.2,2.6,0.1,4c0-0.1,0-0.2-0.1-0.3v-0.1l0,0c-0.1-0.8,0-1.6,0-2.4
		c0-1-0.1-2.1-0.3-3.1c-0.3-2-1-3.8-1.8-5.6c-0.9-2.3-2.3-5.3-0.8-7.8c1-1.8,3.1-2.3,4.9-2.6c2.1-0.3,4.3-0.1,6.3,0.3
		c2.2,0.4,4.5,1.2,6.3,2.9c2.2,2.2,2.4,5.6,0,7.7c-0.9,0.8-2,1.3-3.1,0.8c-1-0.4-1.6-1.4-1.5-2.6c0.1-0.7,0.4-1.3,0.9-1.7
		c-0.1,0.1-0.2,0.3-0.3,0.4l0,0c-0.7,0.9-0.8,2.6,0.5,3.5c0.3,0.2,0.9,0.5,1.7,0.4c0.7-0.1,1.6-0.6,2.3-1.5c0.7-0.8,1.2-2,1.1-3.3
		c0-1.3-0.6-2.5-1.4-3.4c-1.7-1.8-3.9-2.5-5.5-2.9C23.7,1.1,22.7,1,22.7,1S21.6,0.8,20,0.8c-1.6,0.1-4,0.1-5.9,1.6
		c-0.9,0.8-1.5,2-1.4,3.3c0,1.3,0.4,2.5,0.8,3.6C14.3,11.5,15,13.3,15.3,14.2L15.3,14.2z"/>
	<path class="st1" d="M15.8,16.7c0.2,1,0.3,2,0.3,3.1c0,0.8-0.1,1.6,0,2.4c-0.2-1.3,0-2.4-0.2-3.6c-0.1-1.3-0.4-2.7-0.9-4.3
		c-0.3-0.9-0.9-2.7-1.8-4.8c-0.4-1.1-0.8-2.3-0.8-3.7c0-1.4,0.6-2.7,1.6-3.6c2-1.6,4.4-1.6,6-1.7c1.7,0,2.7,0.2,2.7,0.2
		s1.1,0.1,2.7,0.5s3.8,1.2,5.6,3c0.9,0.9,1.5,2.2,1.5,3.6s-0.5,2.7-1.2,3.5c-0.7,0.9-1.6,1.4-2.4,1.6c-0.8,0.1-1.5-0.2-1.9-0.4
		c-1.5-1.1-1.2-3.2-0.4-4.1C26.8,8.2,27,8,27.2,7.9C27.1,8,27,8.1,26.9,8.2c-0.4,0.4-0.8,1-0.9,1.7c-0.2,1.2,0.5,2.2,1.5,2.6
		c1.1,0.5,2.3,0,3.1-0.8c2.4-2.1,2.2-5.6,0-7.7c-1.8-1.7-4.1-2.5-6.3-2.9c-2.1-0.4-4.2-0.6-6.3-0.3c-1.7,0.2-3.8,0.8-4.9,2.6
		c-1.4,2.4-0.1,5.4,0.8,7.8C14.7,12.9,15.4,14.8,15.8,16.7L15.8,16.7z"/>
	<path class="st1" d="M6.7,25.2c-0.4,0.2-0.6,0.5-0.8,1c-0.2,0.6-1.1,3.4-1.1,3.5c0,0-0.2,0.7-0.2,1.6c0,0.4,0,0.9,0.2,1.2
		S5.3,33,5.4,33c0.3,0,0.4-0.4,0.3-0.6c0-0.1-0.1-0.2-0.2-0.1c-0.1,0.1,0,0.2-0.1,0.3c0.1-0.8,0.5,0.3-0.1,0.3
		C5,33,4.5,32.2,4.6,31.3c0-0.8,0.2-1.6,0.2-1.6s0.9-2.9,1.1-3.4C6.2,25.7,6.4,25.4,6.7,25.2L6.7,25.2z"/>
	<path class="st1" d="M6.7,26.4c-0.3,0.1-0.4,0.4-0.6,0.8c-0.1,0.4-0.7,2.6-0.7,2.6S5.2,30.4,5.3,31c0.1,0.7,0.9,1.1,1.1,0.6
		c0-0.2-0.1-0.4-0.2-0.5c-0.2,0.1-0.2,0.3,0,0.4c-0.1-0.1-0.1-0.3,0.1-0.3c0,0,0.1,0.3,0.1,0.4c0,0.3-0.8,0-0.9-0.6s0.1-1.2,0.1-1.2
		s0.6-2.2,0.7-2.6C6.4,26.9,6.5,26.6,6.7,26.4L6.7,26.4z"/>
	<path class="st1" d="M7,27c-0.2,0.1-0.2,0.2-0.3,0.5C6.6,27.7,6.4,29,6.4,29s0,0.3,0,0.7c0,0.3,0.2,0.8,0.4,0.6
		C6.9,30.1,7,30.1,7,30c0-0.2-0.2-0.1-0.2,0c0.1-0.1,0.1-0.1,0.1,0c0,0-0.1,0.1-0.2,0.1c-0.4,0.3-0.3-1.3-0.3-1.2
		c0,0,0.2-1.2,0.3-1.5C6.9,27.2,6.9,27.1,7,27L7,27z"/>
	<path class="st1" d="M8.1,22.8c0.1-0.4,0.4-0.7,0.8-1c0.4-0.4,2.7-2,2.7-2s0.6-0.4,1.3-0.6c0.7-0.3,1.6,0,1.5,0.4
		c0.1,0.6-0.9,0.4-0.2,0.1c-0.1,0.1-0.2,0-0.3,0.1S14,20,14.1,20c0.2,0,0.5-0.2,0.4-0.5c0-0.2-0.2-0.5-0.5-0.6s-0.7,0-1.1,0.1
		c-0.7,0.2-1.3,0.6-1.3,0.6s-2.3,1.6-2.7,2S8.2,22.3,8.1,22.8L8.1,22.8z"/>
	<path class="st1" d="M9.2,22.5c0.1-0.3,0.3-0.5,0.6-0.7s2.1-1.4,2.1-1.4s0.4-0.3,1-0.3s1,0.7,0.8,0.8c-0.1,0.1-0.3-0.1-0.4,0
		c0-0.2,0.1-0.2,0.3-0.1c-0.1-0.2-0.3-0.1-0.3,0.1c0.1,0.2,0.3,0.2,0.5,0.1c0.3-0.3-0.2-1-0.8-1s-1,0.4-1,0.4s-1.8,1.1-2.1,1.4
		C9.5,21.9,9.3,22.1,9.2,22.5L9.2,22.5z"/>
	<path class="st1" d="M9.7,22.7c0.1-0.2,0.2-0.2,0.4-0.4c0.2-0.2,1.2-0.7,1.2-0.6c-0.1,0,1.2-0.4,1.1,0c0,0.1-0.1,0.2-0.1,0.2
		c-0.1,0-0.1-0.1,0-0.2c-0.1,0-0.1,0.2,0,0.2c0.2,0,0.1-0.1,0.2-0.3c0.1-0.2-0.4-0.5-0.6-0.3c-0.3,0.1-0.6,0.2-0.6,0.2
		s-1.1,0.5-1.2,0.7C9.9,22.4,9.8,22.5,9.7,22.7L9.7,22.7z"/>
	<path class="st1" d="M9.8,21.2c0.9,1,0.6,3-0.7,4.5s-3.1,1.8-4,0.8s-0.6-3,0.7-4.5S8.9,20.2,9.8,21.2L9.8,21.2z"/>
	<polygon class="st1" points="6.8,21.9 7.1,17.7 9.3,21.3 	"/>
	<polygon class="st1" points="5.9,22.8 2.3,23.2 5.4,25.7 	"/>
	<path class="st1" d="M12.4,26.3l0.5,4.2l-4.4-5l-0.1-0.1L8.8,25c0,0,2.9,3,3.6,1.1C12.7,25.3,12.4,26.3,12.4,26.3L12.4,26.3z"/>
	<path class="st2" d="M8.4,24.9l-0.1-0.4c0-0.1-0.3,0.4-0.3,0.4H8.4L8.4,24.9z"/>
	<path class="st2" d="M7.8,23.8c0,0-0.2-1.1,0.3-1.7c0.5-0.7,0.8-0.6,0.8-0.6s0.2,0.5-0.3,1.4C8,23.8,7.8,23.8,7.8,23.8L7.8,23.8z"
		/>
	<path class="st3" d="M8.5,23c-0.1,0-0.4-0.1-0.7-0.3c0-0.2,0.1-0.4,0.3-0.6l0,0L8.2,22C8.5,22.5,8.5,22.8,8.5,23L8.5,23L8.5,23z"/>
	<path class="st2" d="M8.2,22.2c0,0,0.1,0.1,0.2,0.3c0.1,0.2,0.1,0.2,0.1,0.2s0,0-0.1-0.2C8.2,22.2,8.2,22.2,8.2,22.2L8.2,22.2z"/>
	<path class="st2" d="M7.5,24.2c0,0-0.9-0.3-1.5,0.3c-0.6,0.6-0.5,0.9-0.5,0.9s0.4,0.3,1.2-0.3C7.4,24.4,7.5,24.2,7.5,24.2L7.5,24.2
		z"/>
	<path class="st3" d="M6.7,25c0-0.1-0.1-0.4-0.2-0.7c-0.2,0.1-0.4,0.1-0.6,0.3l0,0l-0.1,0.1C6.3,25,6.5,25,6.7,25L6.7,25L6.7,25z"/>
	<path class="st2" d="M6,24.6c0,0,0.1,0.1,0.2,0.2c0.2,0.1,0.2,0.1,0.2,0.1s0-0.1-0.2-0.1C6,24.6,6,24.6,6,24.6L6,24.6z"/>
	<path class="st1" d="M14.4,47.6c-0.1-0.1-0.1-0.3-0.1-0.4c0-0.5,0.3-0.8,0.7-0.8s0.7,0.4,0.7,0.8c0,0.1,0,0.3-0.1,0.4H14.4
		L14.4,47.6z"/>
	<polygon class="st1" points="14.7,47.5 14.6,48.2 14.4,47.5 	"/>
	<polygon class="st1" points="15.2,47.5 15.1,48.2 15,47.5 	"/>
	<polygon class="st1" points="15.7,47.5 15.6,48.2 15.5,47.5 	"/>
	<path class="st1" d="M15.9,47.6c-0.1-0.1-0.1-0.3-0.1-0.4c0-0.5,0.3-0.8,0.7-0.8s0.7,0.4,0.7,0.8c0,0.1,0,0.3-0.1,0.4H15.9
		L15.9,47.6z"/>
	<polygon class="st1" points="16.2,47.4 16.1,48.1 15.9,47.4 	"/>
	<polygon class="st1" points="16.7,47.4 16.6,48.1 16.5,47.4 	"/>
	<polygon class="st1" points="17.2,47.4 17.1,48.1 17,47.4 	"/>
</g>
<g id="Layer_2" class="st0">
	<path class="st1" d="M2.7,37.4c0-0.1-0.1-0.2-0.1-0.3c0-0.4,0.3-0.6,0.6-0.6s0.6,0.3,0.6,0.6c0,0.1,0,0.2-0.1,0.3H2.7L2.7,37.4z"/>
	<polygon class="st1" points="2.9,37.3 2.8,37.9 2.7,37.3 	"/>
	<polygon class="st1" points="3.3,37.3 3.2,37.9 3.1,37.3 	"/>
	<polygon class="st1" points="3.7,37.3 3.6,37.9 3.5,37.3 	"/>
	<path class="st1" d="M29,37.4c0-0.1-0.1-0.2-0.1-0.3c0-0.4,0.3-0.6,0.6-0.6c0.3,0,0.6,0.3,0.6,0.6c0,0.1,0,0.2-0.1,0.3H29L29,37.4z
		"/>
	<polygon class="st1" points="29.2,37.3 29.2,37.9 29,37.3 	"/>
	<polygon class="st1" points="29.7,37.3 29.6,37.9 29.5,37.3 	"/>
	<polygon class="st1" points="30.1,37.3 30,37.9 29.9,37.3 	"/>
	<path class="st1" d="M30.5,37.4c0-0.1-0.1-0.2-0.1-0.3c0-0.4,0.3-0.6,0.6-0.6c0.3,0,0.6,0.3,0.6,0.6c0,0.1,0,0.2-0.1,0.3H30.5
		L30.5,37.4z"/>
	<polygon class="st1" points="30.7,37.3 30.6,37.8 30.5,37.3 	"/>
	<polygon class="st1" points="31.1,37.3 31,37.8 30.9,37.3 	"/>
	<polygon class="st1" points="31.6,37.3 31.5,37.8 31.4,37.3 	"/>
	<path class="st1" d="M28.5,16.1c-2.2,0.2-4,3.1-2.7,7.6c1.6,5.8-2.2,9.4-5.4,10.5C14.5,36.5,6,37,3.1,37l0,0c4.1,0,19-0.3,24.3-5.4
		c3.1-2.3,4.1-5.8,4.7-8.4C33.3,18.9,30.7,15.9,28.5,16.1L28.5,16.1z"/>
	<path class="st1" d="M13.2,42.6c0-0.1-0.1-0.2-0.1-0.3c0-0.4,0.3-0.6,0.6-0.6s0.6,0.3,0.6,0.6c0,0.1,0,0.2-0.1,0.3H13.2L13.2,42.6z
		"/>
	<polygon class="st1" points="13.4,42.5 13.3,43 13.2,42.5 	"/>
	<polygon class="st1" points="13.9,42.5 13.8,43 13.7,42.5 	"/>
	<polygon class="st1" points="14.3,42.5 14.2,43 14.1,42.5 	"/>
	<path class="st1" d="M26.7,29.5c-0.1,1.8-1,3.3-1.9,4.4c-3.4,3.8-9.1,7.2-11.1,8.4l0,0c2.7-1.4,11.7-6.4,14.5-11.5
		c0,0-0.4-0.8-0.8-1.6L26.7,29.5L26.7,29.5z"/>
	<path class="st1" d="M16.3,10.7c-1.8,0.7-2.8,1.4-2.8,1.4s-1.1,0.6-2.7,1.7c-1.5,1.2-3.6,3-4.8,5.6c-0.6,1.3-0.7,2.9-0.2,4.2
		C6.3,25,7.4,26,8.6,26.5c2.3,1.2,4.6,0.1,5.1-0.9c1.2-1.8,0-3.7-1.3-4.2c-1.3-0.6-3,0.2-3.3,1.8c0.4-1.6,2-2.1,3.2-1.5
		c1.1,0.5,2,2.1,1,3.6c-0.4,0.9-2.4,1.9-4.5,0.8c-2.2-0.8-3.5-4-2.3-6.5c2.4-5,7.4-6.9,7.2-7.1c0,0,1-0.7,2.8-1.4
		c1.7-0.7,6.5-2.2,9.1-1.6c1.2,0.3,2.3,1.3,2.8,2.5s0.6,2.6,0.6,3.8c0,0.4,0,0.7,0,1c0.1-0.1,0.3,0,0.4,0c0-0.3,0-0.7,0-1.1
		c0-1.2-0.1-2.6-0.6-4s-1.7-2.4-3.1-2.8C22.8,8.5,18,10.1,16.3,10.7L16.3,10.7z"/>
	<path class="st1" d="M12.9,22.1c-0.6-0.3-1-0.6-1.7-0.5c-0.3,0-1.8,0.5-1.8,1.7c0,1.3,1.4,1.3,1.3,1.3c0,0,0.3,0,0.6-0.1
		c0.4,0,0.5-0.6,0.1-0.8c-0.6-0.2-0.2,0.5-0.1,0.1c-0.1-0.1-0.2-0.1-0.1-0.1c0.3,0-0.1-0.1,0.1-0.2c-0.1,0.1,0,0,0.1,0.1
		c0.1,0-0.1,0-0.1-0.1c0,0.1,0,0.2,0.1,0.1c-0.1,0.1-0.2,0-0.2-0.1c0.2-0.1,0.2-0.1,0.3,0.1C11.4,24,11,23.8,11,23.5
		c0.2-0.6,0.5-0.2,0.6,0c0.2,0.2-0.1,0.8-0.4,0.7c-0.1,0.1-0.7-0.2-0.4-0.6c0.2-0.3,0.9-0.3,0.9,0.3c0,0.5-0.8,0.8-1,0.2
		c-0.1-0.2-0.1-0.6,0.2-0.7c0.2-0.1,0.4-0.1,0.6,0c1,0.4,0.4,1.6-0.1,1.6c-0.5,0-0.8,0-0.8,0s-0.3,0-0.8-0.2C9.4,24.7,8.9,24,9,23.3
		c0.1-1.6,1.8-2.1,2.2-2.1C12.1,21,12.5,21.6,12.9,22.1L12.9,22.1z"/>
	<path class="st1" d="M20.4,34.3C20,34,19.6,34,19,34.1S15.4,35,15.4,35s-0.7,0.2-1.5,0.7c-0.8,0.3-1.3,1.4-0.9,1.8
		c0.2,0.3,0.6,0.2,0.7,0c0.1-0.1,0.1-0.3,0-0.3c-0.2-0.1-0.2,0.1-0.3,0.1c0.7-0.4,0.1,0.6-0.2,0.1c-0.3-0.2,0.1-1.2,0.9-1.6
		c0.7-0.5,1.4-0.7,1.4-0.7s2.9-0.8,3.5-0.9C19.6,34.2,19.9,34.1,20.4,34.3L20.4,34.3z"/>
	<path class="st1" d="M19.3,35c-0.3-0.2-0.6-0.2-1-0.1c-0.5,0.1-2.6,0.8-2.6,0.8s-0.6,0.1-1.1,0.6s-0.4,1.5,0.1,1.4
		c0.2-0.2,0.3-0.3,0.3-0.5c-0.2-0.1-0.4,0-0.3,0.2c0-0.2,0.1-0.2,0.3-0.1c-0.1-0.1-0.1,0.3-0.3,0.3c-0.2,0.1-0.4-0.7,0-1.2
		c0.4-0.4,1-0.6,1-0.6s2.2-0.7,2.6-0.8C18.7,34.9,19,34.8,19.3,35L19.3,35z"/>
	<path class="st1" d="M19.3,35.4c-0.2-0.1-0.3-0.1-0.6-0.1c-0.3,0-1.4,0.5-1.4,0.6c0.1,0-1.4,0.7-0.8,1.2c0.1,0,0.2,0.2,0.3,0
		c0.1-0.1-0.1-0.2-0.2-0.2c0.1,0,0.1,0.1,0.1,0.1c0.1,0-0.1-0.1-0.2-0.1c-0.4-0.2,0.9-1,0.8-0.9c0,0,1.1-0.5,1.4-0.6
		C19,35.4,19.1,35.3,19.3,35.4L19.3,35.4z"/>
	<path class="st1" d="M22.5,34c0.4-0.3,0.7-0.3,1.3-0.3c0.6,0,3.6,0.2,3.6,0.2s0.8,0.1,1.5,0.4c0.8,0.2,1.4,1.1,1.1,1.4
		c-0.2,0.6-1-0.3-0.3,0c-0.1,0-0.2-0.2-0.3-0.1c-0.1,0.1-0.1,0.3,0,0.3c0.1,0.2,0.6,0.2,0.7-0.1c0.3-0.4-0.4-1.4-1.2-1.6
		c-0.8-0.3-1.6-0.4-1.6-0.4s-3-0.2-3.6-0.2C23.2,33.6,22.9,33.6,22.5,34L22.5,34z"/>
	<path class="st1" d="M23.7,34.5c0.3-0.2,0.6-0.1,1-0.2c0.4,0,2.7,0.3,2.7,0.2c0,0,0.6,0,1.1,0.4c0.5,0.3,0.5,1.3,0.2,1.2
		c-0.1,0-0.3-0.3-0.3-0.2c0.1-0.1,0.2-0.1,0.3,0.1c0-0.2-0.2-0.3-0.4-0.2c0,0.3,0.1,0.4,0.4,0.5c0.5,0,0.4-1.1-0.1-1.4
		c-0.6-0.4-1.2-0.4-1.2-0.4s-2.3-0.2-2.7-0.2C24.2,34.2,23.9,34.2,23.7,34.5L23.7,34.5z"/>
	<path class="st1" d="M24.1,35c0.2-0.1,0.3,0,0.5,0s1.5,0.2,1.5,0.3c-0.1-0.1,1.4,0.5,1,0.7c0,0.1-0.2,0.1-0.1,0.1
		c-0.1,0-0.1-0.1,0.1-0.1c-0.1,0-0.2,0.1-0.1,0.2c0.2,0.1,0.2,0,0.3-0.1c0.5-0.6-1.1-1-1-1c0,0-1.2-0.3-1.5-0.3
		C24.4,34.8,24.2,34.8,24.1,35L24.1,35z"/>
	<path class="st1" d="M25.3,33.4c0.1,1.5-1.5,2.8-3.5,2.9c-2,0.1-3.8-0.9-3.9-2.4s1.5-2.8,3.5-2.9C23.5,30.9,25.2,32,25.3,33.4
		L25.3,33.4z"/>
	<polygon class="st1" points="22.3,31.6 25.3,28.7 24.8,33.2 	"/>
	<polygon class="st1" points="21,31.7 17.6,29.2 18.7,33.6 	"/>
	<path class="st2" d="M21.7,35c0,0,0.2-0.4,0.2-0.5s-0.6,0-0.6,0L21.7,35L21.7,35z"/>
	<path class="st2" d="M21.9,34c0,0,0.6-1.2,1.6-1.3s1.2,0.1,1.2,0.1s-0.1,0.7-1.4,1C22.2,34.1,21.9,34,21.9,34L21.9,34z"/>
	<path class="st3" d="M23.2,33.8c-0.1-0.1-0.3-0.4-0.4-0.8c0.2-0.2,0.5-0.3,0.8-0.3l0,0h0.1c-0.1,0.7-0.3,1-0.4,1.2L23.2,33.8
		L23.2,33.8z"/>
	<path class="st2" d="M23.6,32.8c0,0,0,0.2-0.1,0.4s-0.1,0.2-0.1,0.2s0-0.1,0.1-0.3C23.6,32.8,23.6,32.8,23.6,32.8L23.6,32.8z"/>
	<path class="st2" d="M21.3,34c0,0-0.7-1.1-1.8-1.1c-1,0-1.2,0.3-1.2,0.3s0.2,0.6,1.5,0.8C21.1,34.2,21.3,34,21.3,34L21.3,34z"/>
	<path class="st3" d="M20,34c0.1-0.1,0.3-0.5,0.3-0.9c-0.2-0.1-0.5-0.2-0.8-0.2l0,0l0,0l0,0h-0.1c0.2,0.7,0.4,1,0.5,1.1L20,34L20,34
		z"/>
	<path class="st2" d="M19.5,33.1c0,0,0,0.2,0.1,0.4s0.1,0.2,0.1,0.2s0-0.1-0.1-0.3C19.5,33.1,19.5,33.1,19.5,33.1L19.5,33.1z"/>
	<polygon class="st1" points="29,26.3 29.6,36.9 30.4,25.2 31.2,36.8 32.2,22.1 	"/>
</g>
<g id="Layer_3">
	<path class="st4" d="M25.9,10.4c0.4-0.3,0.7-0.3,1.3-0.3c0.6,0,3.4,0.7,3.4,0.7s0.7,0.2,1.4,0.6c0.8,0.3,1.3,1.4,1,1.8
		c-0.1,0.3-0.6,0.3-0.7,0.1c-0.1,0-0.2-0.2,0-0.3c0.1-0.1,0.2,0.1,0.3,0.1c-0.7-0.3,0,0.6,0.2,0.1c0.3-0.2-0.2-1.2-0.9-1.5
		c-0.7-0.4-1.4-0.6-1.4-0.6s-2.8-0.6-3.4-0.7C26.6,10.3,26.3,10.2,25.9,10.4L25.9,10.4z"/>
	<path class="st4" d="M26.9,11.1c0.3-0.3,0.6-0.2,0.9-0.2c0.4,0.1,2.5,0.6,2.6,0.6c0,0,0.6,0.1,1.1,0.6s0.4,1.6,0,1.5
		c-0.2-0.2-0.3-0.3-0.3-0.6c0.2-0.1,0.4,0,0.3,0.2c-0.1-0.2-0.2-0.2-0.3-0.1c0.1-0.1,0.2,0.2,0.3,0.3c0.2,0.1,0.4-0.8-0.1-1.2
		c-0.4-0.4-1-0.5-1-0.5s-2.1-0.5-2.5-0.6S27.2,10.9,26.9,11.1L26.9,11.1z"/>
	<path class="st4" d="M27,11.5c0.2-0.2,0.3-0.1,0.5-0.1c0.3,0,1.4,0.5,1.4,0.5c-0.1,0,1.4,0.6,0.9,1.2c-0.1,0-0.1,0.2-0.3,0.1
		c-0.1-0.1,0.1-0.3,0.2-0.2c-0.1,0-0.1,0.1-0.1,0.1c-0.1,0,0.1-0.1,0.1-0.1c0.4-0.2-0.9-0.9-0.8-0.9c0,0-1.1-0.5-1.4-0.5
		C27.3,11.5,27.2,11.5,27,11.5L27,11.5z"/>
	<path class="st4" d="M23.8,10.3c-0.4-0.2-0.7-0.2-1.2-0.2c-0.6,0-3.5,0.4-3.4,0.4c0,0-0.7,0.1-1.4,0.5c-0.8,0.3-1.3,1.2-1,1.5
		c0.2,0.6,0.9-0.3,0.2,0c0.1,0,0.2-0.2,0.3-0.1c0.1,0.1,0.1,0.3,0,0.3c-0.1,0.2-0.5,0.2-0.7-0.1c-0.3-0.4,0.3-1.5,1.1-1.7
		c0.7-0.4,1.5-0.5,1.5-0.5s2.9-0.4,3.5-0.4C23.1,9.9,23.5,10,23.8,10.3L23.8,10.3z"/>
	<path class="st4" d="M22.8,10.9c-0.3-0.2-0.5-0.1-0.9-0.1s-2.6,0.5-2.6,0.4c0,0-0.6,0.1-1,0.5c-0.5,0.4-0.4,1.3-0.2,1.2
		c0.1,0,0.2-0.3,0.3-0.2c-0.1-0.1-0.2-0.2-0.3,0.1c0-0.2,0.2-0.3,0.4-0.2c0,0.3-0.1,0.4-0.3,0.5c-0.5,0-0.5-1.1,0-1.5
		s1.1-0.5,1.1-0.5s2.1-0.4,2.6-0.4C22.2,10.6,22.5,10.6,22.8,10.9L22.8,10.9z"/>
	<path class="st4" d="M22.4,11.4c-0.2-0.1-0.3,0-0.5,0s-1.4,0.4-1.4,0.4c0.1-0.1-1.3,0.6-0.9,0.8c0,0.1,0.2,0.1,0.1,0.1
		c0.1,0,0.1-0.1-0.1-0.1c0.1-0.1,0.2,0.1,0.2,0.2c-0.2,0.1-0.2,0-0.3-0.1c-0.5-0.6,1-1.1,0.9-1.1c0,0,1.2-0.4,1.4-0.4
		C22.1,11.3,22.3,11.3,22.4,11.4L22.4,11.4z"/>
	<path class="st4" d="M23.9,45.1c-4-0.1-7-1.8-5.7-7.6c1.3-6,6.2-10.6,6.4-25.6h0.1c0.1,13.1,4.6,19.3,6,25.3
		C31.8,42,29.2,45.2,23.9,45.1L23.9,45.1z"/>
	<path class="st4" d="M21.1,9.9c0,1.5,1.6,2.8,3.6,2.8s3.6-1.2,3.6-2.8c0-1.5-1.6-2.8-3.6-2.8C22.7,7.2,21.1,8.4,21.1,9.9L21.1,9.9z
		"/>
	<polygon class="st4" points="23.9,7.8 20.8,5 21.6,9.6 	"/>
	<polygon class="st4" points="25.2,7.8 28.2,5 27.5,9.6 	"/>
	<path class="st4" d="M22.8,39.1c-1.1,2.4-3.2,3.4-6,2.6c-1.6-0.3-5.7-3-8.6-6.5c-3.1-3.4-4.5-7.6-4.4-7.6c0,0-0.4-1-0.5-2.8
		c0-1.8,0.7-4.3,2.6-5.7c1.9-1.3,4.5-1.3,6.1,0.1c1.7,1.5,1.2,3.9,0.7,4.5c-2,2.8-5.3,1.1-5.1-1.7c0.1,2.7,3.1,3.7,4.7,1.4
		c0.4-0.5,0.8-2.6-0.6-3.8c-1.4-1.3-3.9-1.3-5.5-0.1c-1.7,1.2-2.4,3.6-2.3,5.2c0.1,1.6,0.5,2.6,0.5,2.6c-0.1,0,1.2,4.1,4.3,7.5
		c2.9,3.5,6.9,6.2,8.4,6.4C19.6,42,21.4,41.3,22.8,39.1L22.8,39.1z"/>
	<path class="st4" d="M10.9,24.6c-0.6,0.3-1.3,0.6-2.1,0c-0.4-0.2-1.7-1.8-1-3.5c0.3-0.7,1.1-1.2,1.6-1c0.5,0.1,0.8,0.3,0.8,0.3
		s0.3,0.1,0.7,0.6c0.5,0.3,0.4,1.9-0.7,1.7c-0.2,0-0.4-0.2-0.6-0.4c-0.2-0.3,0-0.7,0.2-0.8c0.5-0.5,1.1,0.3,0.8,0.8
		c-0.3,0.6-1,0.2-1-0.2c-0.1-0.6,0.7-0.6,0.7-0.4c0.3,0.1,0.4,0.8,0.1,0.9c-0.2,0-0.7,0.3-0.6-0.4c0.1-0.3,0.6-0.3,0.6,0.2
		c-0.2,0.1-0.2,0.1-0.3-0.1c0-0.1,0.2-0.2,0.2,0c-0.1-0.2-0.1,0-0.1,0.1c0-0.1,0.1-0.1,0.1-0.1c-0.1,0-0.2,0-0.2,0.1
		c-0.1-0.3,0.3-0.1,0-0.3c-0.1-0.1,0,0,0.1,0c0.1-0.4-0.6,0,0,0.1c0.5,0.1,0.7-0.6,0.3-0.9C10.3,21,10,20.9,10,20.9
		c0.1,0-1.2-0.8-1.8,0.6C7.6,22.6,8.7,24,9,24.2C9.7,24.7,10.2,24.6,10.9,24.6L10.9,24.6z"/>
	<path class="st4" d="M24.7,11.3c0,0-0.2-0.4-0.2-0.5s0.6,0,0.6,0L24.7,11.3L24.7,11.3z"/>
	<path class="st4" d="M24.4,10.2c0,0-0.6-1.2-1.6-1.3s-1.2,0.2-1.2,0.2S21.8,9.8,23,10C24.2,10.4,24.4,10.2,24.4,10.2L24.4,10.2z"/>
	<path class="st5" d="M23.1,10.2c0.1-0.1,0.3-0.5,0.4-0.9C23.3,9.1,23,9,22.8,9l0,0h-0.1C22.8,9.8,23,10.1,23.1,10.2L23.1,10.2
		L23.1,10.2z"/>
	<path class="st4" d="M22.7,9.1c0,0,0,0.2,0.1,0.4s0.1,0.2,0.1,0.2s0-0.1-0.1-0.3C22.8,9.2,22.7,9.1,22.7,9.1L22.7,9.1z"/>
	<path class="st4" d="M25,10.2c0,0,0.6-1.2,1.6-1.3s1.2,0.2,1.2,0.2s-0.2,0.7-1.4,0.9C25.2,10.4,25,10.2,25,10.2L25,10.2z"/>
	<path class="st5" d="M26.2,10.2c-0.1-0.1-0.3-0.5-0.4-0.9C26.1,9.1,26.3,9,26.6,9l0,0h0.1c-0.1,0.8-0.3,1.1-0.4,1.2H26.2L26.2,10.2
		z"/>
	<path class="st4" d="M26.6,9.1c0,0,0,0.2-0.1,0.4s-0.1,0.2-0.1,0.2s0-0.1,0.1-0.3S26.6,9.1,26.6,9.1L26.6,9.1z"/>
	<path class="st4" d="M25.9,46.5c0.1-0.1,0.1-0.3,0.1-0.4c0-0.5-0.3-0.8-0.7-0.8s-0.7,0.4-0.7,0.8c0,0.1,0,0.3,0.1,0.4H25.9
		L25.9,46.5z"/>
	<path class="st4" d="M24.1,46.5c0.1-0.1,0.1-0.3,0.1-0.4c0-0.5-0.3-0.8-0.7-0.8c-0.4,0-0.7,0.4-0.7,0.8c0,0.1,0,0.3,0.1,0.4H24.1
		L24.1,46.5z"/>
</g>
</svg>
