<?xml version="1.0" encoding="utf-8"?>
<!-- Generator: Adobe Illustrator 19.2.1, SVG Export Plug-In . SVG Version: 6.00 Build 0)  -->
<svg version="1.1" id="Laag_1" xmlns="http://www.w3.org/2000/svg" xmlns:xlink="http://www.w3.org/1999/xlink" x="0px" y="0px"
	 viewBox="0 0 300 300" style="enable-background:new 0 0 300 300;" xml:space="preserve">
<style type="text/css">
	.st0{fill:#303333;}
	.st1{fill:none;stroke:#303333;stroke-width:9;stroke-miterlimit:10;}
</style>
<path d="M37.2,121.8"/>
<path class="st0" d="M150.5,10C82.4,10,25.7,58.8,13.4,123.4c0.3,0.4,0.6,0.8,1.2,1.2c1.2,0.7,2.7,1.3,4.1,1.2c0.3,0,3.4-0.8,3.3-1
	c3.2,5.9,0.8,17.7-0.9,27.2c-0.8,4.6-1.5,8.6-1.5,11.1c0.1,6.5,4.5,11.8,8.5,11.8c4.1,0,8.4-5.7,8.7-11.9c0.3-5-0.9-10.3-2.1-15.4
	c-0.3-1.5-0.7-3-1-4.4c-0.1-0.6-0.3-1.3-0.4-2c-1-4.4-2.2-10-0.5-14c1.1-2.7,2.9-4.2,4.9-4.2c2.2,0,4.4,1.8,6,4.9
	c0.9,1.7,0.5,3.8,0.1,5.7c-0.4,2-0.8,4.3,0,6.3c0.9,2.3,2.9,4,5.3,4c2.8,0,5.3-2.5,5.9-5c0.3-1.1,0.1-2.6-0.1-4.1
	c-0.3-2.1-0.6-4.4,0.5-5.6c0.7-0.8,2.1-1.2,4.1-1.2c4.4,0.1,4.3,4.3,4.3,8.8c0,3.6-0.1,7.2,2,9.3c1.1,1.1,2.7,1.7,4.8,1.7
	c1.8,0,4-0.4,6.6-1.2l0.4-0.1c1.7-0.6,3.4-1.1,4.9-1.1c1.9,0,3.3,0.9,4.5,2.9c1.9,3.1,0.9,9.4,0.1,14.1c-0.2,1.4-0.4,2.8-0.6,3.8
	c-0.1,1-0.3,2.4-0.5,4c-0.9,6.5-1.4,12.8-1.4,19.4c-0.1,5.4,0.4,13,6.8,14.6c4.5,1.1,9.5-1.7,11.1-5.8c1.8-4.7,1.4-10.6,0.9-15.5
	c-0.2-2.7-0.7-5.3-1.2-7.9c-0.5-2.5-1.3-5-2-7.6c-1.6-5.4-3.2-10.9-2.9-16.1c0.2-3.2,2.5-6.7,5.4-6.7c1,0,2.1,0.5,3.1,1.4
	c3.4,3.2,2.2,8.4,1.2,12.9c-0.4,1.8-0.8,3.6-0.9,5.2c-0.3,4.3,1,8,2.1,9.2s2.6,1.8,4.1,1.8c1.7,0,3.4-0.8,4.5-2.2
	c1.4-1.8,1.9-5.6,1.3-8.4c-0.2-0.9-0.5-2-0.8-3.1c-1.8-6.9-4.5-17.3,3.1-20.1c0.6-0.2,1.2-0.3,1.8-0.3c3.9,0,5.5,6.3,6.6,10.8
	c0.3,1.2,0.6,2.3,0.9,3.2c1.6,5.1,4.9,9.2,7.7,9.2c1.6,0,4.2-1.8,5.4-9.3c0-0.3,0.1-0.6,0.1-0.9c0.4-3,0.9-5.8,3.9-7.2
	c0.8-0.4,1.6-0.6,2.4-0.6c4.6,0,7.9,4.9,11.5,6.9c6.2,3.2,9.1-2.9,10.7-8c1-3.3,1.9-6.4,4.6-6.4c0.3,0,0.6,0,1,0.1
	c3.7,0.8,3.3,8.9,3.2,12.3v0.4c-0.1,1.9-0.4,4.4-0.7,7.3c-1.1,9.9-2.6,24.6,2.2,30.1c1.4,1.6,3.2,2.5,5.4,2.6c2,0.1,3.5-0.7,4.7-2.3
	c2.8-3.9,2.5-13.1,1.7-19.2c-0.9-7.5-2.7-14.7-3.7-17.7c-0.2-0.7-0.5-1.3-0.7-1.9l0,0c-1.3-3.6-2.4-6.6-0.6-10.3
	c1.1-2.2,2.7-3.4,4.6-3.4c2.7,0,5.1,2.5,5.3,5.6c0.1,1.7-0.4,3.8-0.9,5.9c-0.9,3.6-1.8,8,0.1,10.9c1.2,1.8,4,3.1,7,3.1
	c2.5,0,4.7-0.9,5.9-2.5c3.1-4.1,0.7-9.7-1.1-13.3c-0.7-1.4-1.3-2.6-1.3-3.3c-0.1-2.4-0.1-10.6,4.3-14.7c1.7-1.6,3.8-2.4,6.7-2.4
	c2,0,4.1,0.4,6.2,0.7c2.3,0.4,4.5,0.7,6.6,0.7c3.3-0.1,5.9-1.3,8.3-3.8c1.3-1.3,4-2.7,6.4-2.7c1.7,0,3.7,0.7,4.1,4.2
	c0.1,1-0.5,3.2-1.2,6c-1.8,6.8-4.2,17.1-0.7,21.7c1.6,2,4.2,2.9,7.7,2.6c2.9-0.2,4.9-1.2,6.2-3c2.6-3.7,1-11.1-0.6-17.2
	c-1.4-5.3-2.6-10.2-0.9-12.5c1-1.2,2.8-1.6,5.7-1.2c2,0.3,3.8,0.5,5.3,0.5c4.7,0,8.3-1.2,13.9-4.7C271.6,55.7,216.4,10,150.5,10z"/>
<circle class="st1" cx="150.5" cy="149.5" r="139.5"/>
</svg>
